<?xml version='1.0'?>
<!-- This file was generated by dvisvgm 1.14.1 -->
<svg height='16.5463pt' version='1.1' viewBox='190.667 102.398 199.649 16.5463' width='199.649pt' xmlns='http://www.w3.org/2000/svg' xmlns:xlink='http://www.w3.org/1999/xlink'>
<defs>
<path d='M4.23213 -3.88543C4.32777 -4.00498 4.35168 -4.02889 4.35168 -4.08867C4.35168 -4.11258 4.35168 -4.13649 4.27995 -4.23213L1.86501 -7.81868H4.68643C6.69489 -7.81868 7.30461 -7.38829 7.53176 -5.49938H7.79477L7.48394 -8.16538H0.944458C0.657534 -8.16538 0.645579 -8.16538 0.645579 -7.89041L3.55068 -3.58655L0.777086 -0.310834C0.681445 -0.203238 0.657534 -0.167372 0.657534 -0.119552C0.657534 0 0.753176 0 0.944458 0H7.48394L7.79477 -2.78555H7.53176C7.31656 -0.812951 6.56339 -0.466252 4.65056 -0.466252H1.33898L4.23213 -3.88543Z' id='g3-6'/>
<path d='M3.88543 2.90511C3.88543 2.86924 3.88543 2.84533 3.68219 2.64209C2.48667 1.43462 1.81719 -0.537983 1.81719 -2.97684C1.81719 -5.29614 2.37908 -7.29265 3.76588 -8.70336C3.88543 -8.81096 3.88543 -8.83487 3.88543 -8.87073C3.88543 -8.94247 3.82565 -8.96638 3.77783 -8.96638C3.62242 -8.96638 2.64209 -8.1056 2.05629 -6.934C1.44658 -5.72653 1.17161 -4.44732 1.17161 -2.97684C1.17161 -1.91283 1.33898 -0.490162 1.96065 0.789041C2.666 2.22366 3.64633 3.00075 3.77783 3.00075C3.82565 3.00075 3.88543 2.97684 3.88543 2.90511Z' id='g3-40'/>
<path d='M3.37136 -2.97684C3.37136 -3.88543 3.25181 -5.36787 2.58232 -6.75467C1.87696 -8.18929 0.896638 -8.96638 0.765131 -8.96638C0.71731 -8.96638 0.657534 -8.94247 0.657534 -8.87073C0.657534 -8.83487 0.657534 -8.81096 0.860772 -8.60772C2.05629 -7.40025 2.72578 -5.42765 2.72578 -2.98879C2.72578 -0.669489 2.16389 1.32702 0.777086 2.73773C0.657534 2.84533 0.657534 2.86924 0.657534 2.90511C0.657534 2.97684 0.71731 3.00075 0.765131 3.00075C0.920548 3.00075 1.90087 2.13998 2.48667 0.968369C3.09639 -0.251059 3.37136 -1.54222 3.37136 -2.97684Z' id='g3-41'/>
<path d='M8.06974 -3.87347C8.23711 -3.87347 8.4523 -3.87347 8.4523 -4.08867C8.4523 -4.31582 8.24907 -4.31582 8.06974 -4.31582H1.02814C0.860772 -4.31582 0.645579 -4.31582 0.645579 -4.10062C0.645579 -3.87347 0.848817 -3.87347 1.02814 -3.87347H8.06974ZM8.06974 -1.64981C8.23711 -1.64981 8.4523 -1.64981 8.4523 -1.86501C8.4523 -2.09215 8.24907 -2.09215 8.06974 -2.09215H1.02814C0.860772 -2.09215 0.645579 -2.09215 0.645579 -1.87696C0.645579 -1.64981 0.848817 -1.64981 1.02814 -1.64981H8.06974Z' id='g3-61'/>
<path d='M7.87846 -2.74969C8.08169 -2.74969 8.29689 -2.74969 8.29689 -2.98879S8.08169 -3.2279 7.87846 -3.2279H1.41071C1.20747 -3.2279 0.992279 -3.2279 0.992279 -2.98879S1.20747 -2.74969 1.41071 -2.74969H7.87846Z' id='g0-0'/>
<path d='M2.24757 -1.6259C2.37509 -1.74545 2.70984 -2.00847 2.83736 -2.12005C3.33151 -2.57435 3.80174 -3.0127 3.80174 -3.73798C3.80174 -4.68643 3.00473 -5.30012 2.00847 -5.30012C1.05205 -5.30012 0.422416 -4.57484 0.422416 -3.8655C0.422416 -3.47497 0.73325 -3.41918 0.844832 -3.41918C1.0122 -3.41918 1.25928 -3.53873 1.25928 -3.84159C1.25928 -4.25604 0.860772 -4.25604 0.765131 -4.25604C0.996264 -4.83786 1.53026 -5.03711 1.9208 -5.03711C2.66202 -5.03711 3.04458 -4.40747 3.04458 -3.73798C3.04458 -2.90909 2.46276 -2.30336 1.52229 -1.33898L0.518057 -0.302864C0.422416 -0.215193 0.422416 -0.199253 0.422416 0H3.57061L3.80174 -1.42665H3.55467C3.53076 -1.26725 3.467 -0.868742 3.37136 -0.71731C3.32354 -0.653549 2.71781 -0.653549 2.59029 -0.653549H1.17161L2.24757 -1.6259Z' id='g2-50'/>
<path d='M3.59851 -1.42267C3.53873 -1.21943 3.53873 -1.19552 3.37136 -0.968369C3.10834 -0.633624 2.58232 -0.119552 2.02042 -0.119552C1.53026 -0.119552 1.25529 -0.561893 1.25529 -1.26725C1.25529 -1.92478 1.6259 -3.26376 1.85305 -3.76588C2.25953 -4.60274 2.82142 -5.03313 3.28767 -5.03313C4.07671 -5.03313 4.23213 -4.0528 4.23213 -3.95716C4.23213 -3.94521 4.19626 -3.78979 4.18431 -3.76588L3.59851 -1.42267ZM4.36364 -4.48319C4.23213 -4.79402 3.90934 -5.27223 3.28767 -5.27223C1.93674 -5.27223 0.478207 -3.52677 0.478207 -1.75741C0.478207 -0.573848 1.17161 0.119552 1.98456 0.119552C2.64209 0.119552 3.20399 -0.394521 3.53873 -0.789041C3.65828 -0.0836862 4.22017 0.119552 4.57883 0.119552S5.22441 -0.0956413 5.4396 -0.526027C5.63088 -0.932503 5.79826 -1.66177 5.79826 -1.70959C5.79826 -1.76936 5.75044 -1.81719 5.6787 -1.81719C5.57111 -1.81719 5.55915 -1.75741 5.51133 -1.57808C5.332 -0.872727 5.10486 -0.119552 4.61469 -0.119552C4.268 -0.119552 4.24408 -0.430386 4.24408 -0.669489C4.24408 -0.944458 4.27995 -1.07597 4.38755 -1.54222C4.47123 -1.8411 4.53101 -2.10411 4.62665 -2.45081C5.06899 -4.24408 5.17659 -4.67447 5.17659 -4.7462C5.17659 -4.91357 5.04508 -5.04508 4.86575 -5.04508C4.48319 -5.04508 4.38755 -4.62665 4.36364 -4.48319Z' id='g1-97'/>
<path d='M4.67447 -4.49514C4.44732 -4.49514 4.33973 -4.49514 4.17235 -4.35168C4.10062 -4.29191 3.96912 -4.11258 3.96912 -3.9213C3.96912 -3.68219 4.14844 -3.53873 4.37559 -3.53873C4.66252 -3.53873 4.98531 -3.77783 4.98531 -4.25604C4.98531 -4.82989 4.43537 -5.27223 3.61046 -5.27223C2.04433 -5.27223 0.478207 -3.56264 0.478207 -1.86501C0.478207 -0.824907 1.12379 0.119552 2.34321 0.119552C3.96912 0.119552 4.99726 -1.1477 4.99726 -1.30311C4.99726 -1.37484 4.92553 -1.43462 4.87771 -1.43462C4.84184 -1.43462 4.82989 -1.42267 4.72229 -1.31507C3.95716 -0.298879 2.82142 -0.119552 2.36712 -0.119552C1.54222 -0.119552 1.2792 -0.836862 1.2792 -1.43462C1.2792 -1.85305 1.48244 -3.0127 1.91283 -3.82565C2.22366 -4.38755 2.86924 -5.03313 3.62242 -5.03313C3.77783 -5.03313 4.43537 -5.00922 4.67447 -4.49514Z' id='g1-99'/>
<path d='M6.01345 -7.99801C6.0254 -8.04583 6.04932 -8.11756 6.04932 -8.17733C6.04932 -8.29689 5.92976 -8.29689 5.90585 -8.29689C5.8939 -8.29689 5.30809 -8.24907 5.24832 -8.23711C5.04508 -8.22516 4.86575 -8.20125 4.65056 -8.18929C4.35168 -8.16538 4.268 -8.15342 4.268 -7.93823C4.268 -7.81868 4.36364 -7.81868 4.53101 -7.81868C5.11681 -7.81868 5.12877 -7.71108 5.12877 -7.59153C5.12877 -7.5198 5.10486 -7.42416 5.0929 -7.38829L4.36364 -4.48319C4.23213 -4.79402 3.90934 -5.27223 3.28767 -5.27223C1.93674 -5.27223 0.478207 -3.52677 0.478207 -1.75741C0.478207 -0.573848 1.17161 0.119552 1.98456 0.119552C2.64209 0.119552 3.20399 -0.394521 3.53873 -0.789041C3.65828 -0.0836862 4.22017 0.119552 4.57883 0.119552S5.22441 -0.0956413 5.4396 -0.526027C5.63088 -0.932503 5.79826 -1.66177 5.79826 -1.70959C5.79826 -1.76936 5.75044 -1.81719 5.6787 -1.81719C5.57111 -1.81719 5.55915 -1.75741 5.51133 -1.57808C5.332 -0.872727 5.10486 -0.119552 4.61469 -0.119552C4.268 -0.119552 4.24408 -0.430386 4.24408 -0.669489C4.24408 -0.71731 4.24408 -0.968369 4.32777 -1.30311L6.01345 -7.99801ZM3.59851 -1.42267C3.53873 -1.21943 3.53873 -1.19552 3.37136 -0.968369C3.10834 -0.633624 2.58232 -0.119552 2.02042 -0.119552C1.53026 -0.119552 1.25529 -0.561893 1.25529 -1.26725C1.25529 -1.92478 1.6259 -3.26376 1.85305 -3.76588C2.25953 -4.60274 2.82142 -5.03313 3.28767 -5.03313C4.07671 -5.03313 4.23213 -4.0528 4.23213 -3.95716C4.23213 -3.94521 4.19626 -3.78979 4.18431 -3.76588L3.59851 -1.42267Z' id='g1-100'/>
<path d='M2.13998 -2.7736C2.46276 -2.7736 3.27572 -2.79751 3.84956 -3.0127C4.75816 -3.3594 4.84184 -4.0528 4.84184 -4.268C4.84184 -4.79402 4.38755 -5.27223 3.59851 -5.27223C2.34321 -5.27223 0.537983 -4.13649 0.537983 -2.00847C0.537983 -0.753176 1.25529 0.119552 2.34321 0.119552C3.96912 0.119552 4.99726 -1.1477 4.99726 -1.30311C4.99726 -1.37484 4.92553 -1.43462 4.87771 -1.43462C4.84184 -1.43462 4.82989 -1.42267 4.72229 -1.31507C3.95716 -0.298879 2.82142 -0.119552 2.36712 -0.119552C1.68568 -0.119552 1.32702 -0.657534 1.32702 -1.54222C1.32702 -1.70959 1.32702 -2.00847 1.50635 -2.7736H2.13998ZM1.56613 -3.0127C2.0802 -4.8538 3.21594 -5.03313 3.59851 -5.03313C4.12453 -5.03313 4.48319 -4.72229 4.48319 -4.268C4.48319 -3.0127 2.57036 -3.0127 2.06824 -3.0127H1.56613Z' id='g1-101'/>
<path d='M3.38331 -1.70959C3.38331 -1.76936 3.33549 -1.81719 3.26376 -1.81719C3.15616 -1.81719 3.14421 -1.78132 3.08443 -1.57808C2.7736 -0.490162 2.28344 -0.119552 1.88892 -0.119552C1.74545 -0.119552 1.57808 -0.155417 1.57808 -0.514072C1.57808 -0.836862 1.72154 -1.19552 1.85305 -1.55417L2.68991 -3.77783C2.72578 -3.87347 2.80946 -4.08867 2.80946 -4.31582C2.80946 -4.81793 2.45081 -5.27223 1.86501 -5.27223C0.765131 -5.27223 0.32279 -3.53873 0.32279 -3.44309C0.32279 -3.39527 0.37061 -3.33549 0.454296 -3.33549C0.561893 -3.33549 0.573848 -3.38331 0.621669 -3.55068C0.908593 -4.55492 1.36289 -5.03313 1.82914 -5.03313C1.93674 -5.03313 2.13998 -5.02117 2.13998 -4.63861C2.13998 -4.32777 1.98456 -3.93325 1.88892 -3.67024L1.05205 -1.44658C0.980324 -1.25529 0.908593 -1.06401 0.908593 -0.848817C0.908593 -0.310834 1.2792 0.119552 1.85305 0.119552C2.95293 0.119552 3.38331 -1.6259 3.38331 -1.70959ZM3.28767 -7.46002C3.28767 -7.63935 3.14421 -7.85455 2.8812 -7.85455C2.60623 -7.85455 2.29539 -7.59153 2.29539 -7.2807C2.29539 -6.98182 2.54645 -6.88618 2.68991 -6.88618C3.0127 -6.88618 3.28767 -7.19701 3.28767 -7.46002Z' id='g1-105'/>
<path d='M3.03661 -7.99801C3.04857 -8.04583 3.07248 -8.11756 3.07248 -8.17733C3.07248 -8.29689 2.95293 -8.29689 2.92902 -8.29689C2.91706 -8.29689 2.48667 -8.26102 2.27148 -8.23711C2.06824 -8.22516 1.88892 -8.20125 1.67372 -8.18929C1.3868 -8.16538 1.30311 -8.15342 1.30311 -7.93823C1.30311 -7.81868 1.42267 -7.81868 1.54222 -7.81868C2.15193 -7.81868 2.15193 -7.71108 2.15193 -7.59153C2.15193 -7.54371 2.15193 -7.5198 2.09215 -7.30461L0.609714 -1.37484C0.573848 -1.24334 0.549938 -1.1477 0.549938 -0.956413C0.549938 -0.358655 0.992279 0.119552 1.60199 0.119552C1.99651 0.119552 2.25953 -0.143462 2.45081 -0.514072C2.65405 -0.908593 2.82142 -1.66177 2.82142 -1.70959C2.82142 -1.76936 2.7736 -1.81719 2.70187 -1.81719C2.59427 -1.81719 2.58232 -1.75741 2.5345 -1.57808C2.3193 -0.753176 2.10411 -0.119552 1.6259 -0.119552C1.26725 -0.119552 1.26725 -0.502117 1.26725 -0.669489C1.26725 -0.71731 1.26725 -0.968369 1.35093 -1.30311L3.03661 -7.99801Z' id='g1-108'/>
<path d='M2.46276 -3.50286C2.48667 -3.5746 2.78555 -4.17235 3.2279 -4.55492C3.53873 -4.84184 3.94521 -5.03313 4.41146 -5.03313C4.88966 -5.03313 5.05704 -4.67447 5.05704 -4.19626C5.05704 -3.51482 4.56687 -2.15193 4.32777 -1.50635C4.22017 -1.21943 4.1604 -1.06401 4.1604 -0.848817C4.1604 -0.310834 4.53101 0.119552 5.10486 0.119552C6.21669 0.119552 6.63512 -1.63786 6.63512 -1.70959C6.63512 -1.76936 6.5873 -1.81719 6.51557 -1.81719C6.40797 -1.81719 6.39601 -1.78132 6.33624 -1.57808C6.06127 -0.597758 5.60697 -0.119552 5.14072 -0.119552C5.02117 -0.119552 4.82989 -0.131507 4.82989 -0.514072C4.82989 -0.812951 4.96139 -1.17161 5.03313 -1.33898C5.27223 -1.99651 5.77435 -3.33549 5.77435 -4.01694C5.77435 -4.73425 5.35592 -5.27223 4.44732 -5.27223C3.38331 -5.27223 2.82142 -4.51905 2.60623 -4.22017C2.57036 -4.90162 2.0802 -5.27223 1.55417 -5.27223C1.17161 -5.27223 0.908593 -5.04508 0.705355 -4.63861C0.490162 -4.20822 0.32279 -3.49091 0.32279 -3.44309S0.37061 -3.33549 0.454296 -3.33549C0.549938 -3.33549 0.561893 -3.34745 0.633624 -3.62242C0.824907 -4.35168 1.0401 -5.03313 1.51831 -5.03313C1.79328 -5.03313 1.88892 -4.84184 1.88892 -4.48319C1.88892 -4.22017 1.76936 -3.75392 1.68568 -3.38331L1.35093 -2.09215C1.30311 -1.86501 1.17161 -1.32702 1.11183 -1.11183C1.02814 -0.800996 0.896638 -0.239103 0.896638 -0.179328C0.896638 -0.0119552 1.02814 0.119552 1.20747 0.119552C1.35093 0.119552 1.51831 0.0478207 1.61395 -0.131507C1.63786 -0.191283 1.74545 -0.609714 1.80523 -0.848817L2.06824 -1.92478L2.46276 -3.50286Z' id='g1-110'/>
<path d='M5.45156 -3.28767C5.45156 -4.42341 4.71034 -5.27223 3.62242 -5.27223C2.04433 -5.27223 0.490162 -3.55068 0.490162 -1.86501C0.490162 -0.729265 1.23138 0.119552 2.3193 0.119552C3.90934 0.119552 5.45156 -1.60199 5.45156 -3.28767ZM2.33126 -0.119552C1.7335 -0.119552 1.29116 -0.597758 1.29116 -1.43462C1.29116 -1.98456 1.57808 -3.20399 1.91283 -3.80174C2.45081 -4.72229 3.1203 -5.03313 3.61046 -5.03313C4.19626 -5.03313 4.65056 -4.55492 4.65056 -3.71806C4.65056 -3.23985 4.3995 -1.96065 3.94521 -1.23138C3.45504 -0.430386 2.79751 -0.119552 2.33126 -0.119552Z' id='g1-111'/>
<path d='M0.514072 1.51831C0.430386 1.87696 0.382565 1.9726 -0.107597 1.9726C-0.251059 1.9726 -0.37061 1.9726 -0.37061 2.19975C-0.37061 2.22366 -0.358655 2.3193 -0.227148 2.3193C-0.071731 2.3193 0.0956413 2.29539 0.251059 2.29539H0.765131C1.01619 2.29539 1.6259 2.3193 1.87696 2.3193C1.94869 2.3193 2.09215 2.3193 2.09215 2.10411C2.09215 1.9726 2.00847 1.9726 1.80523 1.9726C1.25529 1.9726 1.21943 1.88892 1.21943 1.79328C1.21943 1.64981 1.75741 -0.406476 1.82914 -0.681445C1.96065 -0.3467 2.28344 0.119552 2.90511 0.119552C4.25604 0.119552 5.71457 -1.63786 5.71457 -3.39527C5.71457 -4.49514 5.0929 -5.27223 4.19626 -5.27223C3.43113 -5.27223 2.78555 -4.53101 2.65405 -4.36364C2.55841 -4.96139 2.09215 -5.27223 1.61395 -5.27223C1.26725 -5.27223 0.992279 -5.10486 0.765131 -4.65056C0.549938 -4.22017 0.382565 -3.49091 0.382565 -3.44309S0.430386 -3.33549 0.514072 -3.33549C0.609714 -3.33549 0.621669 -3.34745 0.6934 -3.62242C0.872727 -4.32777 1.09988 -5.03313 1.57808 -5.03313C1.85305 -5.03313 1.94869 -4.84184 1.94869 -4.48319C1.94869 -4.19626 1.91283 -4.07671 1.86501 -3.86152L0.514072 1.51831ZM2.58232 -3.73001C2.666 -4.06476 3.00075 -4.41146 3.19203 -4.57883C3.32354 -4.69838 3.71806 -5.03313 4.17235 -5.03313C4.69838 -5.03313 4.93748 -4.5071 4.93748 -3.88543C4.93748 -3.31158 4.60274 -1.96065 4.30386 -1.33898C4.00498 -0.6934 3.45504 -0.119552 2.90511 -0.119552C2.09215 -0.119552 1.96065 -1.1477 1.96065 -1.19552C1.96065 -1.23138 1.98456 -1.32702 1.99651 -1.3868L2.58232 -3.73001Z' id='g1-112'/>
<path d='M4.65056 -4.88966C4.27995 -4.81793 4.08867 -4.55492 4.08867 -4.29191C4.08867 -4.00498 4.31582 -3.90934 4.48319 -3.90934C4.81793 -3.90934 5.0929 -4.19626 5.0929 -4.55492C5.0929 -4.93748 4.72229 -5.27223 4.12453 -5.27223C3.64633 -5.27223 3.09639 -5.05704 2.59427 -4.32777C2.51059 -4.96139 2.03238 -5.27223 1.55417 -5.27223C1.08792 -5.27223 0.848817 -4.91357 0.705355 -4.65056C0.502117 -4.22017 0.32279 -3.50286 0.32279 -3.44309C0.32279 -3.39527 0.37061 -3.33549 0.454296 -3.33549C0.549938 -3.33549 0.561893 -3.34745 0.633624 -3.62242C0.812951 -4.33973 1.0401 -5.03313 1.51831 -5.03313C1.80523 -5.03313 1.88892 -4.82989 1.88892 -4.48319C1.88892 -4.22017 1.76936 -3.75392 1.68568 -3.38331L1.35093 -2.09215C1.30311 -1.86501 1.17161 -1.32702 1.11183 -1.11183C1.02814 -0.800996 0.896638 -0.239103 0.896638 -0.179328C0.896638 -0.0119552 1.02814 0.119552 1.20747 0.119552C1.33898 0.119552 1.56613 0.0358655 1.63786 -0.203238C1.67372 -0.298879 2.11606 -2.10411 2.1878 -2.37908C2.24757 -2.64209 2.3193 -2.89315 2.37908 -3.15616C2.4269 -3.32354 2.47472 -3.51482 2.51059 -3.67024C2.54645 -3.77783 2.86924 -4.36364 3.16812 -4.62665C3.31158 -4.75816 3.62242 -5.03313 4.11258 -5.03313C4.30386 -5.03313 4.49514 -4.99726 4.65056 -4.88966Z' id='g1-114'/>
<path d='M2.72578 -2.39103C2.92902 -2.35517 3.25181 -2.28344 3.32354 -2.27148C3.47895 -2.22366 4.01694 -2.03238 4.01694 -1.45853C4.01694 -1.08792 3.68219 -0.119552 2.29539 -0.119552C2.04433 -0.119552 1.1477 -0.155417 0.908593 -0.812951C1.3868 -0.753176 1.6259 -1.12379 1.6259 -1.3868C1.6259 -1.63786 1.45853 -1.76936 1.21943 -1.76936C0.956413 -1.76936 0.609714 -1.56613 0.609714 -1.02814C0.609714 -0.32279 1.32702 0.119552 2.28344 0.119552C4.10062 0.119552 4.63861 -1.21943 4.63861 -1.8411C4.63861 -2.02042 4.63861 -2.35517 4.25604 -2.73773C3.95716 -3.02466 3.67024 -3.08443 3.02466 -3.21594C2.70187 -3.28767 2.1878 -3.39527 2.1878 -3.93325C2.1878 -4.17235 2.40299 -5.03313 3.53873 -5.03313C4.04085 -5.03313 4.53101 -4.84184 4.65056 -4.41146C4.12453 -4.41146 4.10062 -3.95716 4.10062 -3.94521C4.10062 -3.69415 4.32777 -3.62242 4.43537 -3.62242C4.60274 -3.62242 4.93748 -3.75392 4.93748 -4.25604S4.48319 -5.27223 3.55068 -5.27223C1.98456 -5.27223 1.56613 -4.04085 1.56613 -3.55068C1.56613 -2.64209 2.45081 -2.45081 2.72578 -2.39103Z' id='g1-115'/>
<path d='M2.40299 -4.80598H3.50286C3.73001 -4.80598 3.84956 -4.80598 3.84956 -5.02117C3.84956 -5.15268 3.77783 -5.15268 3.53873 -5.15268H2.48667L2.92902 -6.89813C2.97684 -7.0655 2.97684 -7.08941 2.97684 -7.1731C2.97684 -7.36438 2.82142 -7.47198 2.666 -7.47198C2.57036 -7.47198 2.29539 -7.43611 2.19975 -7.05355L1.7335 -5.15268H0.609714C0.37061 -5.15268 0.263014 -5.15268 0.263014 -4.92553C0.263014 -4.80598 0.3467 -4.80598 0.573848 -4.80598H1.63786L0.848817 -1.64981C0.753176 -1.23138 0.71731 -1.11183 0.71731 -0.956413C0.71731 -0.394521 1.11183 0.119552 1.78132 0.119552C2.98879 0.119552 3.63437 -1.6259 3.63437 -1.70959C3.63437 -1.78132 3.58655 -1.81719 3.51482 -1.81719C3.49091 -1.81719 3.44309 -1.81719 3.41918 -1.76936C3.40722 -1.75741 3.39527 -1.74545 3.31158 -1.55417C3.06052 -0.956413 2.51059 -0.119552 1.81719 -0.119552C1.45853 -0.119552 1.43462 -0.418431 1.43462 -0.681445C1.43462 -0.6934 1.43462 -0.920548 1.47049 -1.06401L2.40299 -4.80598Z' id='g1-116'/>
<path d='M3.14421 1.33898C2.82142 1.79328 2.35517 2.19975 1.76936 2.19975C1.6259 2.19975 1.05205 2.17584 0.872727 1.6259C0.908593 1.63786 0.968369 1.63786 0.992279 1.63786C1.35093 1.63786 1.59004 1.32702 1.59004 1.05205S1.36289 0.681445 1.18356 0.681445C0.992279 0.681445 0.573848 0.824907 0.573848 1.41071C0.573848 2.02042 1.08792 2.43885 1.76936 2.43885C2.96488 2.43885 4.17235 1.33898 4.5071 0.0119552L5.6787 -4.65056C5.69066 -4.71034 5.71457 -4.78207 5.71457 -4.8538C5.71457 -5.03313 5.57111 -5.15268 5.39178 -5.15268C5.28418 -5.15268 5.03313 -5.10486 4.93748 -4.7462L4.0528 -1.23138C3.99303 -1.01619 3.99303 -0.992279 3.89738 -0.860772C3.65828 -0.526027 3.26376 -0.119552 2.68991 -0.119552C2.02042 -0.119552 1.96065 -0.777086 1.96065 -1.09988C1.96065 -1.78132 2.28344 -2.70187 2.60623 -3.56264C2.73773 -3.90934 2.80946 -4.07671 2.80946 -4.31582C2.80946 -4.81793 2.45081 -5.27223 1.86501 -5.27223C0.765131 -5.27223 0.32279 -3.53873 0.32279 -3.44309C0.32279 -3.39527 0.37061 -3.33549 0.454296 -3.33549C0.561893 -3.33549 0.573848 -3.38331 0.621669 -3.55068C0.908593 -4.55492 1.36289 -5.03313 1.82914 -5.03313C1.93674 -5.03313 2.13998 -5.03313 2.13998 -4.63861C2.13998 -4.32777 2.00847 -3.98107 1.82914 -3.52677C1.24334 -1.96065 1.24334 -1.56613 1.24334 -1.2792C1.24334 -0.143462 2.05629 0.119552 2.65405 0.119552C3.00075 0.119552 3.43113 0.0119552 3.84956 -0.430386L3.86152 -0.418431C3.68219 0.286924 3.56264 0.753176 3.14421 1.33898Z' id='g1-121'/>
</defs>
<g id='page1' transform='matrix(1.25 0 0 1.25 0 0)'>
<use x='152.533' xlink:href='#g1-99' y='92.1544'/>
<use x='157.553' xlink:href='#g1-111' y='92.1544'/>
<use x='163.159' xlink:href='#g1-115' y='92.1544'/>
<use x='168.652' xlink:href='#g1-116' y='92.1544'/>
<use x='176.185' xlink:href='#g3-61' y='92.1544'/>
<use x='188.576' xlink:href='#g3-6' y='92.1544'/>
<use x='196.999' xlink:href='#g3-40' y='92.1544'/>
<use x='201.534' xlink:href='#g1-112' y='92.1544'/>
<use x='207.387' xlink:href='#g1-114' y='92.1544'/>
<use x='212.968' xlink:href='#g1-101' y='92.1544'/>
<use x='218.373' xlink:href='#g1-100' y='92.1544'/>
<use x='224.433' xlink:href='#g1-105' y='92.1544'/>
<use x='228.412' xlink:href='#g1-99' y='92.1544'/>
<use x='233.431' xlink:href='#g1-116' y='92.1544'/>
<use x='237.642' xlink:href='#g1-105' y='92.1544'/>
<use x='241.621' xlink:href='#g1-111' y='92.1544'/>
<use x='247.227' xlink:href='#g1-110' y='92.1544'/>
<use x='256.845' xlink:href='#g0-0' y='92.1544'/>
<use x='268.766' xlink:href='#g1-114' y='92.1544'/>
<use x='274.347' xlink:href='#g1-101' y='92.1544'/>
<use x='279.752' xlink:href='#g1-97' y='92.1544'/>
<use x='285.874' xlink:href='#g1-108' y='92.1544'/>
<use x='289.611' xlink:href='#g1-105' y='92.1544'/>
<use x='293.589' xlink:href='#g1-116' y='92.1544'/>
<use x='297.8' xlink:href='#g1-121' y='92.1544'/>
<use x='303.916' xlink:href='#g3-41' y='92.1544'/>
<use x='308.451' xlink:href='#g2-50' y='87.2182'/>
</g>
</svg>
